LAB2/activity.vcd
$date
	Wed Nov 13 17:56:30 2019
$end
$version
	QuestaSim Version 10.5c_4
$end
$timescale
	1ns
$end

$scope module tb_fir $end
$var wire 1 ! clk $end
$var wire 1 " sample_clk $end
$var wire 1 # rst_n $end
$var wire 1 $ dav_wire $end
$var wire 1 % sample_wire [3] $end
$var wire 1 & sample_wire [2] $end
$var wire 1 ' sample_wire [1] $end
$var wire 1 ( sample_wire [0] $end
$var wire 1 ) outp_wire [3] $end
$var wire 1 * outp_wire [2] $end
$var wire 1 + outp_wire [1] $end
$var wire 1 , outp_wire [0] $end

$scope module u1 $end
$var wire 1 - sample [3] $end
$var wire 1 . sample [2] $end
$var wire 1 / sample [1] $end
$var wire 1 0 sample [0] $end
$var wire 1 1 outp [3] $end
$var wire 1 2 outp [2] $end
$var wire 1 3 outp [1] $end
$var wire 1 4 outp [0] $end
$var wire 1 5 rst_n $end
$var wire 1 6 clk $end
$var wire 1 7 sample_clk $end
$var wire 1 8 dav $end
$var wire 1 9 sample_out_wire [3] $end
$var wire 1 : sample_out_wire [2] $end
$var wire 1 ; sample_out_wire [1] $end
$var wire 1 < sample_out_wire [0] $end
$var wire 1 = coeficient_out_wire [3] $end
$var wire 1 > coeficient_out_wire [2] $end
$var wire 1 ? coeficient_out_wire [1] $end
$var wire 1 @ coeficient_out_wire [0] $end
$var wire 1 A coef_addr_wire [2] $end
$var wire 1 B coef_addr_wire [1] $end
$var wire 1 C coef_addr_wire [0] $end

$scope module U_delayline $end
$var wire 1 D rws_wire $end
$var wire 1 E N9 $end
$var wire 1 F N10 $end
$var wire 1 G N11 $end
$var wire 1 H N12 $end
$var wire 1 I N13 $end
$var wire 1 J N14 $end
$var wire 1 K N15 $end
$var wire 1 L N16 $end
$var wire 1 M N17 $end
$var wire 1 N N18 $end
$var wire 1 O N19 $end
$var wire 1 P N20 $end
$var wire 1 Q N21 $end
$var wire 1 R N22 $end
$var wire 1 S N23 $end
$var wire 1 T N24 $end
$var wire 1 U N25 $end
$var wire 1 V N26 $end
$var wire 1 W N27 $end
$var wire 1 X N28 $end
$var wire 1 Y N29 $end
$var wire 1 Z N30 $end
$var wire 1 [ N31 $end
$var wire 1 \ N32 $end
$var wire 1 ] N33 $end
$var wire 1 ^ N34 $end
$var wire 1 _ N35 $end
$var wire 1 ` N36 $end
$var wire 1 a N37 $end
$var wire 1 b N38 $end
$var wire 1 c N39 $end
$var wire 1 d N40 $end
$var wire 1 e N41 $end
$var wire 1 f N42 $end
$var wire 1 g N43 $end
$var wire 1 h N44 $end
$var wire 1 i N45 $end
$var wire 1 j N46 $end
$var wire 1 k N47 $end
$var wire 1 l N48 $end
$var wire 1 m N49 $end
$var wire 1 n N50 $end
$var wire 1 o N51 $end
$var wire 1 p N52 $end
$var wire 1 q N53 $end
$var wire 1 r N54 $end
$var wire 1 s N55 $end
$var wire 1 t N56 $end
$var wire 1 u N57 $end
$var wire 1 v N58 $end
$var wire 1 w N59 $end
$var wire 1 x N60 $end
$var wire 1 y N61 $end
$var wire 1 z N62 $end
$var wire 1 { N63 $end
$var wire 1 | N64 $end
$var wire 1 } N65 $end
$var wire 1 ~ N66 $end
$var wire 1 !! N67 $end
$var wire 1 "! N68 $end
$var wire 1 #! N69 $end
$var wire 1 $! N70 $end
$var wire 1 %! N71 $end
$var wire 1 &! N72 $end
$var wire 1 '! N74 $end
$var wire 1 (! N75 $end
$var wire 1 )! N76 $end
$var wire 1 *! N77 $end
$var wire 1 +! N78 $end
$var wire 1 ,! N79 $end
$var wire 1 -! N80 $end
$var wire 1 .! N81 $end
$var wire 1 /! N82 $end
$var wire 1 0! N83 $end
$var wire 1 1! N84 $end
$var wire 1 2! N85 $end
$var wire 1 3! N86 $end
$var wire 1 4! N87 $end
$var wire 1 5! N88 $end
$var wire 1 6! N89 $end
$var wire 1 7! N90 $end
$var wire 1 8! N91 $end
$var wire 1 9! N92 $end
$var wire 1 :! N93 $end
$var wire 1 ;! N94 $end
$var wire 1 <! N95 $end
$var wire 1 =! N96 $end
$var wire 1 >! N97 $end
$var wire 1 ?! N98 $end
$var wire 1 @! N99 $end
$var wire 1 A! N100 $end
$var wire 1 B! N101 $end
$var wire 1 C! N102 $end
$var wire 1 D! N103 $end
$var wire 1 E! N104 $end
$var wire 1 F! N105 $end
$var wire 1 G! N138 $end
$var wire 1 H! N139 $end
$var wire 1 I! N140 $end
$var wire 1 J! N141 $end
$var wire 1 K! N142 $end
$var wire 1 L! N143 $end
$var wire 1 M! N144 $end
$var wire 1 N! N145 $end
$var wire 1 O! N146 $end
$var wire 1 P! N147 $end
$var wire 1 Q! N148 $end
$var wire 1 R! N149 $end
$var wire 1 S! N150 $end
$var wire 1 T! N151 $end
$var wire 1 U! N152 $end
$var wire 1 V! N153 $end
$var wire 1 W! N154 $end
$var wire 1 X! N155 $end
$var wire 1 Y! N156 $end
$var wire 1 Z! N157 $end
$var wire 1 [! N158 $end
$var wire 1 \! N159 $end
$var wire 1 ]! N160 $end
$var wire 1 ^! N161 $end
$var wire 1 _! N162 $end
$var wire 1 `! N163 $end
$var wire 1 a! N164 $end
$var wire 1 b! N165 $end
$var wire 1 c! N166 $end
$var wire 1 d! N167 $end
$var wire 1 e! N168 $end
$var wire 1 f! N169 $end
$var wire 1 g! N170 $end
$var wire 1 h! N171 $end
$var wire 1 i! N172 $end
$var wire 1 j! n3 $end
$var wire 1 k! n4 $end
$var wire 1 l! n5 $end
$var wire 1 m! n6 $end
$var wire 1 n! n7 $end
$var wire 1 o! n8 $end
$var wire 1 p! n9 $end
$var wire 1 q! n10 $end
$var wire 1 r! n11 $end
$var wire 1 s! n12 $end
$var wire 1 t! n13 $end
$var wire 1 u! n14 $end
$var wire 1 v! n15 $end
$var wire 1 w! n16 $end
$var wire 1 x! n17 $end
$var wire 1 y! n18 $end
$var wire 1 z! n19 $end
$var wire 1 {! n20 $end
$var wire 1 |! n21 $end
$var wire 1 }! n22 $end
$var wire 1 ~! n23 $end
$var wire 1 !" n1 $end
$var wire 1 "" n2 $end
$var wire 1 #" n24 $end
$var wire 1 $" n25 $end
$var wire 1 %" n26 $end
$var wire 1 &" n27 $end
$var wire 1 '" adrs_wire [2] $end
$var wire 1 (" adrs_wire [1] $end
$var wire 1 )" adrs_wire [0] $end
$var wire 1 *" sample_write [3] $end
$var wire 1 +" sample_write [2] $end
$var wire 1 ," sample_write [1] $end
$var wire 1 -" sample_write [0] $end
$var wire 1 ." counter [31] $end
$var wire 1 /" counter [30] $end
$var wire 1 0" counter [29] $end
$var wire 1 1" counter [28] $end
$var wire 1 2" counter [27] $end
$var wire 1 3" counter [26] $end
$var wire 1 4" counter [25] $end
$var wire 1 5" counter [24] $end
$var wire 1 6" counter [23] $end
$var wire 1 7" counter [22] $end
$var wire 1 8" counter [21] $end
$var wire 1 9" counter [20] $end
$var wire 1 :" counter [19] $end
$var wire 1 ;" counter [18] $end
$var wire 1 <" counter [17] $end
$var wire 1 =" counter [16] $end
$var wire 1 >" counter [15] $end
$var wire 1 ?" counter [14] $end
$var wire 1 @" counter [13] $end
$var wire 1 A" counter [12] $end
$var wire 1 B" counter [11] $end
$var wire 1 C" counter [10] $end
$var wire 1 D" counter [9] $end
$var wire 1 E" counter [8] $end
$var wire 1 F" counter [7] $end
$var wire 1 G" counter [6] $end
$var wire 1 H" counter [5] $end
$var wire 1 I" counter [4] $end
$var wire 1 J" counter [3] $end
$var wire 1 K" counter [2] $end
$var wire 1 L" counter [1] $end
$var wire 1 M" counter [0] $end
$var wire 1 N" pointer [31] $end
$var wire 1 O" pointer [30] $end
$var wire 1 P" pointer [29] $end
$var wire 1 Q" pointer [28] $end
$var wire 1 R" pointer [27] $end
$var wire 1 S" pointer [26] $end
$var wire 1 T" pointer [25] $end
$var wire 1 U" pointer [24] $end
$var wire 1 V" pointer [23] $end
$var wire 1 W" pointer [22] $end
$var wire 1 X" pointer [21] $end
$var wire 1 Y" pointer [20] $end
$var wire 1 Z" pointer [19] $end
$var wire 1 [" pointer [18] $end
$var wire 1 \" pointer [17] $end
$var wire 1 ]" pointer [16] $end
$var wire 1 ^" pointer [15] $end
$var wire 1 _" pointer [14] $end
$var wire 1 `" pointer [13] $end
$var wire 1 a" pointer [12] $end
$var wire 1 b" pointer [11] $end
$var wire 1 c" pointer [10] $end
$var wire 1 d" pointer [9] $end
$var wire 1 e" pointer [8] $end
$var wire 1 f" pointer [7] $end
$var wire 1 g" pointer [6] $end
$var wire 1 h" pointer [5] $end
$var wire 1 i" pointer [4] $end
$var wire 1 j" pointer [3] $end
$var wire 1 k" pointer [2] $end
$var wire 1 l" pointer [1] $end
$var wire 1 m" pointer [0] $end

$scope module U30_CBRAM $end
$var wire 1 n" mem2[0][3] $end
$var wire 1 o" mem2[0][2] $end
$var wire 1 p" mem2[0][1] $end
$var wire 1 q" mem2[0][0] $end
$var wire 1 r" mem2[1][3] $end
$var wire 1 s" mem2[1][2] $end
$var wire 1 t" mem2[1][1] $end
$var wire 1 u" mem2[1][0] $end
$var wire 1 v" mem2[2][3] $end
$var wire 1 w" mem2[2][2] $end
$var wire 1 x" mem2[2][1] $end
$var wire 1 y" mem2[2][0] $end
$var wire 1 z" mem2[3][3] $end
$var wire 1 {" mem2[3][2] $end
$var wire 1 |" mem2[3][1] $end
$var wire 1 }" mem2[3][0] $end
$var wire 1 ~" mem2[4][3] $end
$var wire 1 !# mem2[4][2] $end
$var wire 1 "# mem2[4][1] $end
$var wire 1 ## mem2[4][0] $end
$var wire 1 $# N35 $end
$var wire 1 %# N36 $end
$var wire 1 &# N37 $end
$var wire 1 '# N38 $end
$var wire 1 (# N39 $end
$var wire 1 )# N40 $end
$var wire 1 *# N41 $end
$var wire 1 +# N42 $end
$var wire 1 ,# N43 $end
$var wire 1 -# N44 $end
$var wire 1 .# N45 $end
$var wire 1 /# N46 $end
$var wire 1 0# N47 $end
$var wire 1 1# n9 $end
$var wire 1 2# n10 $end
$var wire 1 3# n11 $end
$var wire 1 4# n12 $end
$var wire 1 5# n13 $end
$var wire 1 6# n14 $end
$var wire 1 7# n15 $end
$var wire 1 8# n16 $end
$var wire 1 9# n17 $end
$var wire 1 :# n18 $end
$var wire 1 ;# n19 $end
$var wire 1 <# n20 $end
$var wire 1 =# n21 $end
$var wire 1 ># n22 $end
$var wire 1 ?# n23 $end
$var wire 1 @# n1 $end
$var wire 1 A# n2 $end
$var wire 1 B# n3 $end
$var wire 1 C# n4 $end
$var wire 1 D# n5 $end
$var wire 1 E# n6 $end
$var wire 1 F# n7 $end
$var wire 1 G# n8 $end
$upscope $end

$scope module add_78 $end
$var wire 1 H# carry [31] $end
$var wire 1 I# carry [30] $end
$var wire 1 J# carry [29] $end
$var wire 1 K# carry [28] $end
$var wire 1 L# carry [27] $end
$var wire 1 M# carry [26] $end
$var wire 1 N# carry [25] $end
$var wire 1 O# carry [24] $end
$var wire 1 P# carry [23] $end
$var wire 1 Q# carry [22] $end
$var wire 1 R# carry [21] $end
$var wire 1 S# carry [20] $end
$var wire 1 T# carry [19] $end
$var wire 1 U# carry [18] $end
$var wire 1 V# carry [17] $end
$var wire 1 W# carry [16] $end
$var wire 1 X# carry [15] $end
$var wire 1 Y# carry [14] $end
$var wire 1 Z# carry [13] $end
$var wire 1 [# carry [12] $end
$var wire 1 \# carry [11] $end
$var wire 1 ]# carry [10] $end
$var wire 1 ^# carry [9] $end
$var wire 1 _# carry [8] $end
$var wire 1 `# carry [7] $end
$var wire 1 a# carry [6] $end
$var wire 1 b# carry [5] $end
$var wire 1 c# carry [4] $end
$var wire 1 d# carry [3] $end
$var wire 1 e# carry [2] $end
$upscope $end

$scope module sub_67 $end
$var wire 1 f# n2 $end
$var wire 1 g# n3 $end
$var wire 1 h# n4 $end
$var wire 1 i# n5 $end
$var wire 1 j# n6 $end
$var wire 1 k# n7 $end
$var wire 1 l# n8 $end
$var wire 1 m# n9 $end
$var wire 1 n# n10 $end
$var wire 1 o# n11 $end
$var wire 1 p# n12 $end
$var wire 1 q# n13 $end
$var wire 1 r# n14 $end
$var wire 1 s# n15 $end
$var wire 1 t# n16 $end
$var wire 1 u# n17 $end
$var wire 1 v# n18 $end
$var wire 1 w# n19 $end
$var wire 1 x# n20 $end
$var wire 1 y# n21 $end
$var wire 1 z# n22 $end
$var wire 1 {# n23 $end
$var wire 1 |# n24 $end
$var wire 1 }# n25 $end
$var wire 1 ~# n26 $end
$var wire 1 !$ n27 $end
$var wire 1 "$ n28 $end
$var wire 1 #$ n29 $end
$var wire 1 $$ n30 $end
$var wire 1 %$ n31 $end
$var wire 1 &$ n32 $end
$var wire 1 '$ n33 $end
$var wire 1 ($ n34 $end
$var wire 1 )$ n35 $end
$var wire 1 *$ n36 $end
$upscope $end
$upscope $end

$scope module u_FIRP $end
$var wire 1 +$ CURRENT_STATE $end
$var wire 1 ,$ NEXT_STATE $end
$var wire 1 -$ N9 $end
$var wire 1 .$ N10 $end
$var wire 1 /$ N11 $end
$var wire 1 0$ N12 $end
$var wire 1 1$ N13 $end
$var wire 1 2$ N14 $end
$var wire 1 3$ N15 $end
$var wire 1 4$ N16 $end
$var wire 1 5$ N17 $end
$var wire 1 6$ N18 $end
$var wire 1 7$ N19 $end
$var wire 1 8$ N20 $end
$var wire 1 9$ N21 $end
$var wire 1 :$ N22 $end
$var wire 1 ;$ N23 $end
$var wire 1 <$ N24 $end
$var wire 1 =$ N25 $end
$var wire 1 >$ N26 $end
$var wire 1 ?$ N27 $end
$var wire 1 @$ N28 $end
$var wire 1 A$ N29 $end
$var wire 1 B$ N30 $end
$var wire 1 C$ N31 $end
$var wire 1 D$ N32 $end
$var wire 1 E$ N33 $end
$var wire 1 F$ N34 $end
$var wire 1 G$ N35 $end
$var wire 1 H$ N36 $end
$var wire 1 I$ N37 $end
$var wire 1 J$ N38 $end
$var wire 1 K$ N39 $end
$var wire 1 L$ N40 $end
$var wire 1 M$ N41 $end
$var wire 1 N$ N42 $end
$var wire 1 O$ N43 $end
$var wire 1 P$ N44 $end
$var wire 1 Q$ N45 $end
$var wire 1 R$ N46 $end
$var wire 1 S$ N47 $end
$var wire 1 T$ N48 $end
$var wire 1 U$ N49 $end
$var wire 1 V$ N50 $end
$var wire 1 W$ N51 $end
$var wire 1 X$ N52 $end
$var wire 1 Y$ N53 $end
$var wire 1 Z$ N54 $end
$var wire 1 [$ N55 $end
$var wire 1 \$ N56 $end
$var wire 1 ]$ N57 $end
$var wire 1 ^$ N58 $end
$var wire 1 _$ N59 $end
$var wire 1 `$ N60 $end
$var wire 1 a$ N61 $end
$var wire 1 b$ N62 $end
$var wire 1 c$ N63 $end
$var wire 1 d$ N64 $end
$var wire 1 e$ N65 $end
$var wire 1 f$ N66 $end
$var wire 1 g$ N67 $end
$var wire 1 h$ N68 $end
$var wire 1 i$ N69 $end
$var wire 1 j$ N70 $end
$var wire 1 k$ N71 $end
$var wire 1 l$ N72 $end
$var wire 1 m$ N85 $end
$var wire 1 n$ N86 $end
$var wire 1 o$ N87 $end
$var wire 1 p$ N88 $end
$var wire 1 q$ N89 $end
$var wire 1 r$ N90 $end
$var wire 1 s$ N91 $end
$var wire 1 t$ N92 $end
$var wire 1 u$ N104 $end
$var wire 1 v$ N105 $end
$var wire 1 w$ N106 $end
$var wire 1 x$ N107 $end
$var wire 1 y$ N108 $end
$var wire 1 z$ N109 $end
$var wire 1 {$ N110 $end
$var wire 1 |$ N111 $end
$var wire 1 }$ N112 $end
$var wire 1 ~$ N113 $end
$var wire 1 !% N114 $end
$var wire 1 "% n7 $end
$var wire 1 #% n8 $end
$var wire 1 $% n9 $end
$var wire 1 %% n10 $end
$var wire 1 &% n11 $end
$var wire 1 '% n12 $end
$var wire 1 (% n13 $end
$var wire 1 )% n14 $end
$var wire 1 *% n15 $end
$var wire 1 +% n16 $end
$var wire 1 ,% n18 $end
$var wire 1 -% n19 $end
$var wire 1 .% n20 $end
$var wire 1 /% n21 $end
$var wire 1 0% N84 $end
$var wire 1 1% N83 $end
$var wire 1 2% N82 $end
$var wire 1 3% N81 $end
$var wire 1 4% N80 $end
$var wire 1 5% N79 $end
$var wire 1 6% N78 $end
$var wire 1 7% N77 $end
$var wire 1 8% n1 $end
$var wire 1 9% n2 $end
$var wire 1 :% n3 $end
$var wire 1 &" n4 $end
$var wire 1 ;% n5 $end
$var wire 1 @# n6 $end
$var wire 1 <% n17 $end
$var wire 1 =% n22 $end
$var wire 1 >% n23 $end
$var wire 1 ?% counter [31] $end
$var wire 1 @% counter [30] $end
$var wire 1 A% counter [29] $end
$var wire 1 B% counter [28] $end
$var wire 1 C% counter [27] $end
$var wire 1 D% counter [26] $end
$var wire 1 E% counter [25] $end
$var wire 1 F% counter [24] $end
$var wire 1 G% counter [23] $end
$var wire 1 H% counter [22] $end
$var wire 1 I% counter [21] $end
$var wire 1 J% counter [20] $end
$var wire 1 K% counter [19] $end
$var wire 1 L% counter [18] $end
$var wire 1 M% counter [17] $end
$var wire 1 N% counter [16] $end
$var wire 1 O% counter [15] $end
$var wire 1 P% counter [14] $end
$var wire 1 Q% counter [13] $end
$var wire 1 R% counter [12] $end
$var wire 1 S% counter [11] $end
$var wire 1 T% counter [10] $end
$var wire 1 U% counter [9] $end
$var wire 1 V% counter [8] $end
$var wire 1 W% counter [7] $end
$var wire 1 X% counter [6] $end
$var wire 1 Y% counter [5] $end
$var wire 1 Z% counter [4] $end
$var wire 1 [% counter [3] $end
$var wire 1 \% counter [2] $end
$var wire 1 ]% counter [1] $end
$var wire 1 ^% counter [0] $end
$var wire 1 _% accumulator [7] $end
$var wire 1 `% accumulator [6] $end
$var wire 1 a% accumulator [5] $end
$var wire 1 b% accumulator [4] $end
$var wire 1 c% accumulator [3] $end
$var wire 1 d% accumulator [2] $end
$var wire 1 e% accumulator [1] $end
$var wire 1 f% accumulator [0] $end

$scope module sub_79 $end
$var wire 1 g% n2 $end
$var wire 1 h% n3 $end
$var wire 1 i% n4 $end
$var wire 1 j% n5 $end
$var wire 1 k% n6 $end
$var wire 1 l% n7 $end
$var wire 1 m% n8 $end
$var wire 1 n% n9 $end
$var wire 1 o% n10 $end
$var wire 1 p% n11 $end
$var wire 1 q% n12 $end
$var wire 1 r% n13 $end
$var wire 1 s% n14 $end
$var wire 1 t% n15 $end
$var wire 1 u% n16 $end
$var wire 1 v% n17 $end
$var wire 1 w% n18 $end
$var wire 1 x% n19 $end
$var wire 1 y% n20 $end
$var wire 1 z% n21 $end
$var wire 1 {% n22 $end
$var wire 1 |% n23 $end
$var wire 1 }% n24 $end
$var wire 1 ~% n25 $end
$var wire 1 !& n26 $end
$var wire 1 "& n27 $end
$var wire 1 #& n28 $end
$var wire 1 $& n29 $end
$var wire 1 %& n30 $end
$var wire 1 && n31 $end
$var wire 1 '& n32 $end
$var wire 1 (& n33 $end
$var wire 1 )& n34 $end
$var wire 1 *& n35 $end
$var wire 1 +& n36 $end
$upscope $end

$scope module mult_115 $end
$var wire 1 ,& n2 $end
$var wire 1 -& n3 $end
$var wire 1 .& n4 $end
$var wire 1 /& n5 $end
$var wire 1 0& n6 $end
$var wire 1 1& n7 $end
$var wire 1 2& n8 $end
$var wire 1 3& n9 $end
$var wire 1 4& n10 $end
$var wire 1 5& n11 $end
$var wire 1 6& n12 $end
$var wire 1 7& n13 $end
$var wire 1 8& n14 $end
$var wire 1 9& n15 $end
$var wire 1 :& n16 $end
$var wire 1 ;& n17 $end
$var wire 1 <& n18 $end
$var wire 1 =& n19 $end
$var wire 1 >& n20 $end
$var wire 1 ?& n21 $end
$var wire 1 @& n22 $end
$var wire 1 A& n23 $end
$var wire 1 B& n24 $end
$var wire 1 C& n25 $end
$var wire 1 D& n26 $end
$var wire 1 E& n27 $end
$var wire 1 F& n28 $end
$var wire 1 G& n29 $end
$var wire 1 H& n30 $end
$var wire 1 I& n31 $end
$var wire 1 J& n32 $end
$var wire 1 K& n33 $end
$var wire 1 L& n62 $end
$var wire 1 M& n63 $end
$var wire 1 N& n64 $end
$var wire 1 O& n65 $end
$var wire 1 P& n66 $end
$var wire 1 Q& n67 $end
$var wire 1 R& n68 $end
$var wire 1 S& n69 $end
$upscope $end

$scope module add_115 $end
$var wire 1 T& n1 $end
$var wire 1 U& carry [7] $end
$var wire 1 V& carry [6] $end
$var wire 1 W& carry [5] $end
$var wire 1 X& carry [4] $end
$var wire 1 Y& carry [3] $end
$var wire 1 Z& carry [2] $end
$var wire 1 [& carry [1] $end
$upscope $end
$upscope $end

$scope module u_ROM $end
$var wire 1 \& address[2] $end
$var wire 1 ]& n1 $end
$var wire 1 ^& n2 $end
$upscope $end
$upscope $end
$upscope $end
$enddefinitions $end
#18
$dumpvars
0,&
0-&
0.&
0/&
00&
01&
02&
03&
04&
05&
06&
07&
08&
09&
0:&
0;&
0<&
0=&
0>&
0?&
0@&
0A&
0B&
0C&
0D&
0E&
0F&
0G&
0H&
0I&
0J&
0K&
1L&
1M&
1N&
1O&
1P&
1Q&
0R&
1S&
0T&
z[&
0Z&
0Y&
0X&
0W&
0V&
0U&
0\&
1]&
1^&
15
16
07
x0
x/
x.
x-
18
04
03
02
01
0<
0;
0:
09
1@
0?
0>
0=
0C
0B
0A
1D
1E
1F
1G
1H
1I
1J
1K
1L
1M
1N
1O
1P
1Q
1R
1S
1T
1U
1V
1W
1X
1Y
1Z
1[
1\
1]
1^
1_
1`
1a
1b
1c
1d
0e
0f
1g
0h
0i
0j
0k
0l
0m
0n
0o
0p
0q
0r
0s
0t
0u
0v
0w
0x
0y
0z
0{
0|
0}
0~
0!!
0"!
0#!
0$!
0%!
0&!
1'!
0(!
0)!
0*!
0+!
0,!
0-!
0.!
0/!
00!
01!
02!
03!
04!
05!
06!
07!
08!
09!
0:!
0;!
0<!
0=!
0>!
0?!
0@!
0A!
0B!
0C!
0D!
0E!
0F!
1G!
0H!
0I!
0J!
0K!
0L!
0M!
0N!
0O!
0P!
0Q!
0R!
0S!
0T!
0U!
0V!
0W!
0X!
0Y!
0Z!
0[!
0\!
0]!
0^!
0_!
0`!
0a!
0b!
0c!
0d!
0e!
0f!
0g!
0h!
0i!
1j!
1k!
0l!
0m!
0n!
0o!
0p!
0q!
0r!
0s!
1t!
0u!
1v!
0w!
1x!
1y!
1z!
1{!
1|!
1}!
1~!
0!"
1""
0#"
1$"
1%"
0)"
0("
1'"
0-"
0,"
0+"
0*"
0M"
0L"
0K"
0J"
0I"
0H"
0G"
0F"
0E"
0D"
0C"
0B"
0A"
0@"
0?"
0>"
0="
0<"
0;"
0:"
09"
08"
07"
06"
05"
04"
03"
02"
01"
00"
0/"
0."
0m"
0l"
0k"
0j"
0i"
0h"
0g"
0f"
0e"
0d"
0c"
0b"
0a"
0`"
0_"
0^"
0]"
0\"
0["
0Z"
0Y"
0X"
0W"
0V"
0U"
0T"
0S"
0R"
0Q"
0P"
0O"
0N"
0n"
0o"
0p"
0q"
0r"
0s"
0t"
0u"
0v"
0w"
0x"
0y"
0z"
0{"
0|"
0}"
0~"
0!#
0"#
0##
0$#
0%#
0&#
0'#
0(#
0)#
0*#
0+#
1,#
0-#
0.#
0/#
00#
11#
12#
03#
04#
05#
06#
17#
18#
19#
1:#
1;#
1<#
1=#
1>#
1?#
0A#
0B#
1C#
1D#
1E#
1F#
1G#
0e#
0d#
0c#
0b#
0a#
0`#
0_#
0^#
0]#
0\#
0[#
0Z#
0Y#
0X#
0W#
0V#
0U#
0T#
0S#
0R#
0Q#
0P#
0O#
0N#
0M#
0L#
0K#
0J#
0I#
0H#
1f#
1g#
1h#
1i#
1j#
0k#
1l#
1m#
0n#
0o#
0p#
0q#
0r#
1s#
0t#
0u#
1v#
0w#
1x#
0y#
0z#
0{#
0|#
0}#
0~#
0!$
0"$
0#$
0$$
0%$
0&$
0'$
0($
1)$
0*$
0+$
0,$
0-$
0.$
0/$
00$
01$
02$
03$
04$
05$
06$
07$
08$
09$
0:$
0;$
0<$
0=$
0>$
0?$
0@$
0A$
0B$
0C$
0D$
0E$
0F$
0G$
0H$
0I$
0J$
0K$
0L$
0M$
0N$
0O$
0P$
0Q$
0R$
0S$
0T$
0U$
0V$
0W$
0X$
0Y$
0Z$
0[$
0\$
0]$
0^$
0_$
0`$
0a$
0b$
0c$
0d$
0e$
0f$
0g$
0h$
0i$
0j$
0k$
0l$
0m$
0n$
0o$
0p$
0q$
0r$
0s$
0t$
0u$
0v$
0w$
0x$
0y$
0z$
0{$
0|$
0}$
0~$
0!%
1"%
0#%
1$%
1%%
0&%
1'%
0(%
1)%
1*%
1+%
1,%
1-%
1.%
1/%
00%
01%
02%
03%
04%
05%
06%
07%
18%
09%
0:%
1&"
1;%
0@#
1<%
1=%
1>%
1^%
0]%
0\%
0[%
0Z%
0Y%
0X%
0W%
0V%
0U%
0T%
0S%
0R%
0Q%
0P%
0O%
0N%
0M%
0L%
0K%
0J%
0I%
0H%
0G%
0F%
0E%
0D%
0C%
0B%
0A%
0@%
0?%
0f%
0e%
0d%
0c%
0b%
0a%
0`%
0_%
1g%
1h%
1i%
1j%
1k%
1l%
0m%
0n%
1o%
1p%
1q%
1r%
1s%
0t%
1u%
1v%
0w%
1x%
0y%
1z%
1{%
1|%
1}%
1~%
1!&
1"&
1#&
1$&
1%&
1&&
1'&
1(&
1)&
0*&
1+&
x%
x&
x'
x(
0)
0*
0+
0,
1!
0"
1#
1$
$end
#20
0!
06
1"
17
0&"
0t!
0(
0'
0&
0%
0-
0.
0/
00
1M$
1O$
1,$
0%"
0G!
1#"
0$"
0""
#22
1!
16
1k"
08%
1\%
0D
1+$
0'"
1I!
1i!
1r#
1n!
0"%
1/$
1A#
0,$
0=%
1B#
16#
1q#
0G
0k!
0,#
1,$
0>#
0=#
1p#
0H
1!"
1+#
1o#
0I
1f
1i
1j
1e
0g
1k
1l
1n
1p
1r
1s
1t
1u
1v
1w
1x
1y
1z
1{
1|
1}
1~
1!!
1%!
1&!
1#!
1m
1o
1q
1"!
1$!
1n#
0J
0i
0m#
0K
0j
1k#
0L
0k
0l#
0M
0l
1*$
0N
0m
0O
0)$
0n
0o
0P
1($
0p
0Q
1'$
0q
0R
1&$
0r
0S
1%$
0s
0T
1$$
0t
0U
1#$
0u
0V
1"$
0v
0W
1!$
0w
0X
1~#
0x
0Y
1}#
0y
0Z
1|#
0z
0[
1{#
0{
0\
1z#
0|
0]
1y#
0}
0^
0x#
0~
0_
1w#
0!!
0`
0v#
0"!
0a
1t#
0#!
0b
0c
0s#
0$!
0%!
0d
0&!
#24
0!
06
0"
07
1&"
0I!
0i!
1t!
0M$
1%"
1G!
0#"
1$"
1""
#26
1!
16
19%
0^%
1D
1M"
08
0$
0*%
0v%
1-$
0A#
1g!
0'!
1(!
1#%
1.$
0/$
1M$
1,#
1>#
1=#
0G!
1H!
1&%
1N$
0O$
0+#
0<%
1}$
0$%
#28
0!
06
#30
1!
16
18%
0\%
09%
1^%
0M"
1C
1]%
1)"
1L"
0s%
1*%
1v%
0-$
0g!
1'!
0]&
0@
0'%
0}$
0)%
0G#
06#
1h!
0z!
0r%
1/$
1s%
0M$
1G!
1?
1>
1R&
1~$
13#
0q%
10$
1O$
1r%
0/$
0>
0Q&
0P&
0F#
0p%
11$
1P$
1q%
00$
0O$
1P&
0o%
12$
1Q$
1p%
01$
0P$
1n%
13$
1R$
1o%
02$
0Q$
0l%
14$
1S$
0n%
03$
0R$
1m%
15$
1T$
1l%
04$
0S$
0+&
16$
1U$
0m%
05$
0T$
17$
1*&
1V$
1+&
06$
0U$
1W$
18$
0)&
07$
0*&
0V$
1X$
19$
0(&
0W$
08$
1)&
1Y$
1:$
0'&
0X$
09$
1(&
1Z$
1;$
0&&
0Y$
0:$
1'&
1[$
1<$
0%&
0Z$
0;$
1&&
1\$
1=$
0$&
0[$
0<$
1%&
1]$
1>$
0#&
0\$
0=$
1$&
1^$
1?$
0"&
0]$
0>$
1#&
1_$
1@$
0!&
0^$
0?$
1"&
1`$
1A$
0~%
0_$
0@$
1!&
1a$
1B$
0}%
0`$
0A$
1~%
1b$
1C$
0|%
0a$
0B$
1}%
1c$
1D$
0{%
0b$
0C$
1|%
1d$
1E$
0z%
0c$
0D$
1{%
1e$
1F$
1y%
0d$
0E$
1z%
1f$
1G$
0x%
0e$
0F$
0y%
1g$
1H$
1w%
0f$
0G$
1x%
1h$
1I$
0u%
0g$
0H$
0w%
1i$
1J$
1K$
1t%
0h$
0I$
1u%
1j$
1k$
1L$
0i$
0J$
0K$
0t%
1l$
0j$
0k$
0L$
0l$
#32
0!
06
#34
1!
16
19%
0^%
1M"
0C
1B
0)"
1("
0*%
0.$
1-$
1g!
0'!
1e#
0(!
1]&
1@
1}$
0?
0^&
1$%
1G#
0E#
03#
0N$
1M$
0G!
1)!
0H!
1?
0R&
0$%
1Q&
15#
1F#
1I!
0Q&
0C#
#36
0!
06
#38
1!
16
09%
1^%
0M"
1C
1K"
1)"
0L"
0]%
1*%
0-$
0g!
1'!
0e#
0]&
0@
1'%
0%%
0}$
1i!
1w!
1d#
0)!
0G#
05#
0h!
1z!
1)%
0M$
1G!
0d#
1)!
0?
1R&
0~$
1!%
1$%
1*!
0I!
14#
1C#
0v!
0#%
0*!
1I!
1>
1Q&
1J!
0D#
0t!
1"%
0J!
0P&
0G!
0I!
1#"
0,$
0""
#40
0!
06
